{"organizations":[{"id":"CA2117","name":"Schwartz Family Animal Welfare Foundation","email":"schwartzfamilyfo@aol.com","phone":"408-379-5554","address":{"address1":"1555 S. Winchester Blvd","address2":null,"city":"San Jose","state":"CA","postcode":"95128","country":"US"},"hours":{"monday":null,"tuesday":null,"wednesday":null,"thursday":null,"friday":null,"saturday":null,"sunday":null},"url":"https:\/\/www.petfinder.com\/member\/us\/ca\/san-jose\/schwartz-family-animal-welfare-foundation-ca2117\/?referrer_id=d095eb0b-c914-4fd8-8ecc-8f9544a42a25","website":null,"mission_statement":null,"adoption":{"policy":null,"url":null},"social_media":{"facebook":null,"twitter":null,"youtube":null,"instagram":null,"pinterest":null},"photos":[],"distance":15.7058,"_links":{"self":{"href":"\/v2\/organizations\/ca2117"},"animals":{"href":"\/v2\/animals?organization=ca2117"}}},{"id":"CA676","name":"The Pet Network","email":"roxrex007@yahoo.com","phone":"408-313-1171     ","address":{"address1":"PO Box 3253","address2":null,"city":"Saratoga","state":"CA","postcode":"95070","country":"US"},"hours":{"monday":null,"tuesday":null,"wednesday":null,"thursday":null,"friday":null,"saturday":null,"sunday":null},"url":"https:\/\/www.petfinder.com\/member\/us\/ca\/saratoga\/the-pet-network-ca676\/?referrer_id=d095eb0b-c914-4fd8-8ecc-8f9544a42a25","website":null,"mission_statement":null,"adoption":{"policy":null,"url":null},"social_media":{"facebook":null,"twitter":null,"youtube":null,"instagram":null,"pinterest":null},"photos":[],"distance":14.0028,"_links":{"self":{"href":"\/v2\/organizations\/ca676"},"animals":{"href":"\/v2\/animals?organization=ca676"}}},{"id":"CA1584","name":"STAR - Support Team Animal Rescue","email":"info@staranimalrescue.org","phone":"408-876-6221    ","address":{"address1":"PO Box 270074","address2":"San Jose, CA 95127","city":"San Jose","state":"CA","postcode":"95123","country":"US"},"hours":{"monday":null,"tuesday":null,"wednesday":null,"thursday":null,"friday":null,"saturday":null,"sunday":null},"url":"https:\/\/www.petfinder.com\/member\/us\/ca\/san-jose\/star-support-team-animal-rescue-ca1584\/?referrer_id=d095eb0b-c914-4fd8-8ecc-8f9544a42a25","website":null,"mission_statement":null,"adoption":{"policy":null,"url":null},"social_media":{"facebook":null,"twitter":null,"youtube":null,"instagram":null,"pinterest":null},"photos":[],"distance":27.8053,"_links":{"self":{"href":"\/v2\/organizations\/ca1584"},"animals":{"href":"\/v2\/animals?organization=ca1584"}}},{"id":"CA2374","name":"Westie Rescue Northern California","email":"bgmordy@comcast.net","phone":"408 242-0990","address":{"address1":null,"address2":null,"city":"Santa Clara","state":"CA","postcode":"95050","country":"US"},"hours":{"monday":null,"tuesday":null,"wednesday":null,"thursday":null,"friday":null,"saturday":null,"sunday":null},"url":"https:\/\/www.petfinder.com\/member\/us\/ca\/santa-clara\/westie-rescue-northern-california-ca2374\/?referrer_id=d095eb0b-c914-4fd8-8ecc-8f9544a42a25","website":null,"mission_statement":null,"adoption":{"policy":null,"url":null},"social_media":{"facebook":null,"twitter":null,"youtube":null,"instagram":null,"pinterest":null},"photos":[{"small":"https:\/\/dl5zpyw5k3jeb.cloudfront.net\/organization-photos\/45944\/1\/?bust=1499359275\u0026width=100","medium":"https:\/\/dl5zpyw5k3jeb.cloudfront.net\/organization-photos\/45944\/1\/?bust=1499359275\u0026width=300","large":"https:\/\/dl5zpyw5k3jeb.cloudfront.net\/organization-photos\/45944\/1\/?bust=1499359275\u0026width=600","full":"https:\/\/dl5zpyw5k3jeb.cloudfront.net\/organization-photos\/45944\/1\/?bust=1499359275"}],"distance":12.0451,"_links":{"self":{"href":"\/v2\/organizations\/ca2374"},"animals":{"href":"\/v2\/animals?organization=ca2374"}}},{"id":"CA834","name":"Nike Animal Rescue Foundation (NARF)","email":"info@narfrescue.org","phone":"408-224-NARF (6273)","address":{"address1":"P.O. Box 26587","address2":null,"city":"San Jose","state":"CA","postcode":"95159","country":"US"},"hours":{"monday":null,"tuesday":null,"wednesday":null,"thursday":null,"friday":null,"saturday":null,"sunday":null},"url":"https:\/\/www.petfinder.com\/member\/us\/ca\/san-jose\/nike-animal-rescue-foundation-narf-ca834\/?referrer_id=d095eb0b-c914-4fd8-8ecc-8f9544a42a25","website":null,"mission_statement":"Nike Animal Rescue Foundation is a 501(c)(3) non-profit, all volunteer organization dedicated to providing assistance to cats and dogs in...","adoption":{"policy":"We hold adoption fairs every Saturday from 11-3p at the Pet Club store at Blossom hill and Snell in San...","url":null},"social_media":{"facebook":null,"twitter":null,"youtube":null,"instagram":null,"pinterest":null},"photos":[{"small":"https:\/\/dl5zpyw5k3jeb.cloudfront.net\/organization-photos\/27985\/1\/?bust=1511942324\u0026width=100","medium":"https:\/\/dl5zpyw5k3jeb.cloudfront.net\/organization-photos\/27985\/1\/?bust=1511942324\u0026width=300","large":"https:\/\/dl5zpyw5k3jeb.cloudfront.net\/organization-photos\/27985\/1\/?bust=1511942324\u0026width=600","full":"https:\/\/dl5zpyw5k3jeb.cloudfront.net\/organization-photos\/27985\/1\/?bust=1511942324"}],"distance":18.0402,"_links":{"self":{"href":"\/v2\/organizations\/ca834"},"animals":{"href":"\/v2\/animals?organization=ca834"}}},{"id":"CA874","name":"WKODIT","email":"wkodit@comcast.net","phone":"(650) 747-9650","address":{"address1":"P.O. Box 644","address2":null,"city":"La Honda","state":"CA","postcode":"94020","country":"US"},"hours":{"monday":null,"tuesday":null,"wednesday":null,"thursday":null,"friday":null,"saturday":null,"sunday":null},"url":"https:\/\/www.petfinder.com\/member\/us\/ca\/la-honda\/wkodit-ca874\/?referrer_id=d095eb0b-c914-4fd8-8ecc-8f9544a42a25","website":null,"mission_statement":"WKODIT (What Kind of Dog is That?!) is a rescue focusing on mixed breed dogs whose time has run out...","adoption":{"policy":"To adopt a dog from WKODIT, you should e-mail or call us and let us know which dog you\u0026#039;re interested...","url":null},"social_media":{"facebook":null,"twitter":null,"youtube":null,"instagram":null,"pinterest":null},"photos":[{"small":"https:\/\/dl5zpyw5k3jeb.cloudfront.net\/organization-photos\/28017\/1\/?bust=1555961435\u0026width=100","medium":"https:\/\/dl5zpyw5k3jeb.cloudfront.net\/organization-photos\/28017\/1\/?bust=1555961435\u0026width=300","large":"https:\/\/dl5zpyw5k3jeb.cloudfront.net\/organization-photos\/28017\/1\/?bust=1555961435\u0026width=600","full":"https:\/\/dl5zpyw5k3jeb.cloudfront.net\/organization-photos\/28017\/1\/?bust=1555961435"},{"small":"https:\/\/dl5zpyw5k3jeb.cloudfront.net\/organization-photos\/28017\/2\/?bust=1555961436\u0026width=100","medium":"https:\/\/dl5zpyw5k3jeb.cloudfront.net\/organization-photos\/28017\/2\/?bust=1555961436\u0026width=300","large":"https:\/\/dl5zpyw5k3jeb.cloudfront.net\/organization-photos\/28017\/2\/?bust=1555961436\u0026width=600","full":"https:\/\/dl5zpyw5k3jeb.cloudfront.net\/organization-photos\/28017\/2\/?bust=1555961436"}],"distance":30.7317,"_links":{"self":{"href":"\/v2\/organizations\/ca874"},"animals":{"href":"\/v2\/animals?organization=ca874"}}},{"id":"CA1060","name":"Toy Breed Rescue","email":"Toydogrsq@aol.com","phone":"(408) 379-5554","address":{"address1":null,"address2":null,"city":"San Jose","state":"CA","postcode":"95128","country":"US"},"hours":{"monday":null,"tuesday":null,"wednesday":null,"thursday":null,"friday":null,"saturday":null,"sunday":null},"url":"https:\/\/www.petfinder.com\/member\/us\/ca\/san-jose\/toy-breed-rescue-ca1060\/?referrer_id=d095eb0b-c914-4fd8-8ecc-8f9544a42a25","website":null,"mission_statement":null,"adoption":{"policy":null,"url":null},"social_media":{"facebook":null,"twitter":null,"youtube":null,"instagram":null,"pinterest":null},"photos":[],"distance":15.7058,"_links":{"self":{"href":"\/v2\/organizations\/ca1060"},"animals":{"href":"\/v2\/animals?organization=ca1060"}}},{"id":"CA1370","name":"Our Pack, Inc.","email":"info@ourpack.org","phone":"(408) 460-4244","address":{"address1":null,"address2":null,"city":"San Jose","state":"CA","postcode":"95118","country":"US"},"hours":{"monday":null,"tuesday":null,"wednesday":null,"thursday":null,"friday":null,"saturday":null,"sunday":null},"url":"https:\/\/www.petfinder.com\/member\/us\/ca\/san-jose\/our-pack-inc-ca1370\/?referrer_id=d095eb0b-c914-4fd8-8ecc-8f9544a42a25","website":"http:\/\/www.ourpack.org","mission_statement":"Our Pack\u0026#039;s mission is to keep dogs and rabbits from entering shelters by providing free spay\/neuter, education, training, rescue and...","adoption":{"policy":null,"url":null},"social_media":{"facebook":"http:\/\/www.facebook.com\/ourpack","twitter":"https:\/\/twitter.com\/OurPack","youtube":null,"instagram":"http:\/\/www.instagram.com\/ourpackinc","pinterest":null},"photos":[{"small":"https:\/\/dl5zpyw5k3jeb.cloudfront.net\/organization-photos\/27144\/1\/?bust=1575312262\u0026width=100","medium":"https:\/\/dl5zpyw5k3jeb.cloudfront.net\/organization-photos\/27144\/1\/?bust=1575312262\u0026width=300","large":"https:\/\/dl5zpyw5k3jeb.cloudfront.net\/organization-photos\/27144\/1\/?bust=1575312262\u0026width=600","full":"https:\/\/dl5zpyw5k3jeb.cloudfront.net\/organization-photos\/27144\/1\/?bust=1575312262"},{"small":"https:\/\/dl5zpyw5k3jeb.cloudfront.net\/organization-photos\/27144\/2\/?bust=1575312263\u0026width=100","medium":"https:\/\/dl5zpyw5k3jeb.cloudfront.net\/organization-photos\/27144\/2\/?bust=1575312263\u0026width=300","large":"https:\/\/dl5zpyw5k3jeb.cloudfront.net\/organization-photos\/27144\/2\/?bust=1575312263\u0026width=600","full":"https:\/\/dl5zpyw5k3jeb.cloudfront.net\/organization-photos\/27144\/2\/?bust=1575312263"},{"small":"https:\/\/dl5zpyw5k3jeb.cloudfront.net\/organization-photos\/27144\/3\/?bust=1575312263\u0026width=100","medium":"https:\/\/dl5zpyw5k3jeb.cloudfront.net\/organization-photos\/27144\/3\/?bust=1575312263\u0026width=300","large":"https:\/\/dl5zpyw5k3jeb.cloudfront.net\/organization-photos\/27144\/3\/?bust=1575312263\u0026width=600","full":"https:\/\/dl5zpyw5k3jeb.cloudfront.net\/organization-photos\/27144\/3\/?bust=1575312263"},{"small":"https:\/\/dl5zpyw5k3jeb.cloudfront.net\/organization-photos\/27144\/4\/?bust=1575312264\u0026width=100","medium":"https:\/\/dl5zpyw5k3jeb.cloudfront.net\/organization-photos\/27144\/4\/?bust=1575312264\u0026width=300","large":"https:\/\/dl5zpyw5k3jeb.cloudfront.net\/organization-photos\/27144\/4\/?bust=1575312264\u0026width=600","full":"https:\/\/dl5zpyw5k3jeb.cloudfront.net\/organization-photos\/27144\/4\/?bust=1575312264"},{"small":"https:\/\/dl5zpyw5k3jeb.cloudfront.net\/organization-photos\/27144\/5\/?bust=1575312264\u0026width=100","medium":"https:\/\/dl5zpyw5k3jeb.cloudfront.net\/organization-photos\/27144\/5\/?bust=1575312264\u0026width=300","large":"https:\/\/dl5zpyw5k3jeb.cloudfront.net\/organization-photos\/27144\/5\/?bust=1575312264\u0026width=600","full":"https:\/\/dl5zpyw5k3jeb.cloudfront.net\/organization-photos\/27144\/5\/?bust=1575312264"},{"small":"https:\/\/dl5zpyw5k3jeb.cloudfront.net\/organization-photos\/27144\/6\/?bust=1575312265\u0026width=100","medium":"https:\/\/dl5zpyw5k3jeb.cloudfront.net\/organization-photos\/27144\/6\/?bust=1575312265\u0026width=300","large":"https:\/\/dl5zpyw5k3jeb.cloudfront.net\/organization-photos\/27144\/6\/?bust=1575312265\u0026width=600","full":"https:\/\/dl5zpyw5k3jeb.cloudfront.net\/organization-photos\/27144\/6\/?bust=1575312265"}],"distance":22.5427,"_links":{"self":{"href":"\/v2\/organizations\/ca1370"},"animals":{"href":"\/v2\/animals?organization=ca1370"}}},{"id":"CA2618","name":"Angel\u0027s Furry Friends","email":"info@angelsfurryfriends.org","phone":null,"address":{"address1":null,"address2":null,"city":"San Jose","state":"CA","postcode":"95118","country":"US"},"hours":{"monday":null,"tuesday":null,"wednesday":null,"thursday":null,"friday":null,"saturday":null,"sunday":null},"url":"https:\/\/www.petfinder.com\/member\/us\/ca\/san-jose\/angels-furry-friends-ca2618\/?referrer_id=d095eb0b-c914-4fd8-8ecc-8f9544a42a25","website":"https:\/\/angelsfurryfriends.org","mission_statement":null,"adoption":{"policy":"Thank you for you interest in our Animals.\r\n\r\nAdopting a Dog or Cat means a lot to the animal, that...","url":"https:\/\/angelsfurryfriends.org\/adoption-application\/"},"social_media":{"facebook":"https:\/\/www.facebook.com\/angelsfurryfriends\/","twitter":"https:\/\/twitter.com\/AngelsFurryFri1","youtube":"https:\/\/www.youtube.com\/channel\/UC-bl7KnMmlGqKInRdQQKieQ\/featured?view_as=subscriber","instagram":"https:\/\/www.instagram.com\/angelsfurryfriends\/","pinterest":null},"photos":[{"small":"https:\/\/dl5zpyw5k3jeb.cloudfront.net\/organization-photos\/48530\/2\/?bust=1538756606\u0026width=100","medium":"https:\/\/dl5zpyw5k3jeb.cloudfront.net\/organization-photos\/48530\/2\/?bust=1538756606\u0026width=300","large":"https:\/\/dl5zpyw5k3jeb.cloudfront.net\/organization-photos\/48530\/2\/?bust=1538756606\u0026width=600","full":"https:\/\/dl5zpyw5k3jeb.cloudfront.net\/organization-photos\/48530\/2\/?bust=1538756606"},{"small":"https:\/\/dl5zpyw5k3jeb.cloudfront.net\/organization-photos\/48530\/1\/?bust=1538758810\u0026width=100","medium":"https:\/\/dl5zpyw5k3jeb.cloudfront.net\/organization-photos\/48530\/1\/?bust=1538758810\u0026width=300","large":"https:\/\/dl5zpyw5k3jeb.cloudfront.net\/organization-photos\/48530\/1\/?bust=1538758810\u0026width=600","full":"https:\/\/dl5zpyw5k3jeb.cloudfront.net\/organization-photos\/48530\/1\/?bust=1538758810"}],"distance":22.5427,"_links":{"self":{"href":"\/v2\/organizations\/ca2618"},"animals":{"href":"\/v2\/animals?organization=ca2618"}}},{"id":"CA958","name":"Copper\u0027s Dream Rescue","email":"staff@coppersdream.org","phone":"  ","address":{"address1":null,"address2":null,"city":"Sunnyvale","state":"CA","postcode":"94085","country":"US"},"hours":{"monday":null,"tuesday":null,"wednesday":null,"thursday":null,"friday":null,"saturday":null,"sunday":null},"url":"https:\/\/www.petfinder.com\/member\/us\/ca\/sunnyvale\/coppers-dream-rescue-ca958\/?referrer_id=d095eb0b-c914-4fd8-8ecc-8f9544a42a25","website":null,"mission_statement":null,"adoption":{"policy":"Pit and Chihuahua Mixes (all ages): $250\n\t\tBabies (under six months): $325 includes spay and current vaccinations.\n\t\tYoungsters (six months...","url":null},"social_media":{"facebook":null,"twitter":null,"youtube":null,"instagram":null,"pinterest":null},"photos":[{"small":"https:\/\/dl5zpyw5k3jeb.cloudfront.net\/organization-photos\/28083\/1\/?bust=1511942370\u0026width=100","medium":"https:\/\/dl5zpyw5k3jeb.cloudfront.net\/organization-photos\/28083\/1\/?bust=1511942370\u0026width=300","large":"https:\/\/dl5zpyw5k3jeb.cloudfront.net\/organization-photos\/28083\/1\/?bust=1511942370\u0026width=600","full":"https:\/\/dl5zpyw5k3jeb.cloudfront.net\/organization-photos\/28083\/1\/?bust=1511942370"}],"distance":5.6693,"_links":{"self":{"href":"\/v2\/organizations\/ca958"},"animals":{"href":"\/v2\/animals?organization=ca958"}}},{"id":"CA222","name":"Feline Friends Network","email":"adoptions@felinefriendsnetwork.org","phone":"(650) 566-8287","address":{"address1":"P.O. Box 18287","address2":null,"city":"Stanford","state":"CA","postcode":"94305","country":"US"},"hours":{"monday":null,"tuesday":null,"wednesday":null,"thursday":null,"friday":null,"saturday":null,"sunday":null},"url":"https:\/\/www.petfinder.com\/member\/us\/ca\/stanford\/feline-friends-network-ca222\/?referrer_id=d095eb0b-c914-4fd8-8ecc-8f9544a42a25","website":null,"mission_statement":null,"adoption":{"policy":null,"url":null},"social_media":{"facebook":null,"twitter":null,"youtube":null,"instagram":null,"pinterest":null},"photos":[{"small":"https:\/\/dl5zpyw5k3jeb.cloudfront.net\/organization-photos\/20317\/1\/?bust=1601242378\u0026width=100","medium":"https:\/\/dl5zpyw5k3jeb.cloudfront.net\/organization-photos\/20317\/1\/?bust=1601242378\u0026width=300","large":"https:\/\/dl5zpyw5k3jeb.cloudfront.net\/organization-photos\/20317\/1\/?bust=1601242378\u0026width=600","full":"https:\/\/dl5zpyw5k3jeb.cloudfront.net\/organization-photos\/20317\/1\/?bust=1601242378"}],"distance":7.6249,"_links":{"self":{"href":"\/v2\/organizations\/ca222"},"animals":{"href":"\/v2\/animals?organization=ca222"}}},{"id":"CA1131","name":"NorCal German Shorthaired Pointer Rescue","email":"adopt@NorCalGSPrescue.org","phone":"408-402-2092","address":{"address1":"PO Box 933","address2":null,"city":"Menlo Park","state":"CA","postcode":"94026","country":"US"},"hours":{"monday":null,"tuesday":null,"wednesday":null,"thursday":null,"friday":null,"saturday":null,"sunday":null},"url":"https:\/\/www.petfinder.com\/member\/us\/ca\/menlo-park\/norcal-german-shorthaired-pointer-rescue-ca1131\/?referrer_id=d095eb0b-c914-4fd8-8ecc-8f9544a42a25","website":null,"mission_statement":null,"adoption":{"policy":null,"url":null},"social_media":{"facebook":null,"twitter":null,"youtube":null,"instagram":null,"pinterest":null},"photos":[],"distance":11.2003,"_links":{"self":{"href":"\/v2\/organizations\/ca1131"},"animals":{"href":"\/v2\/animals?organization=ca1131"}}},{"id":"CA1392","name":"Tailchaser Rescue","email":"adopt@tcrescue.com","phone":null,"address":{"address1":null,"address2":null,"city":"San Jose","state":"CA","postcode":"95123","country":"US"},"hours":{"monday":null,"tuesday":null,"wednesday":null,"thursday":null,"friday":null,"saturday":null,"sunday":null},"url":"https:\/\/www.petfinder.com\/member\/us\/ca\/san-jose\/tailchaser-rescue-ca1392\/?referrer_id=d095eb0b-c914-4fd8-8ecc-8f9544a42a25","website":"http:\/\/www.tcrescue.com","mission_statement":"Tailchaser Rescue is a 501(c)3 non-profit, no-kill, animal rescue organization based out of the Bay Area, CA, dedicated to rescuing...","adoption":{"policy":"The first step in our adoption process is to fill out our adoption application at tcrescue.com\r\n\r\nAfter that we will...","url":"http:\/\/tcrescue.com\/adopt"},"social_media":{"facebook":"http:\/\/www.facebook.com\/tcrescue\/","twitter":"https:\/\/twitter.com\/tcrescue","youtube":null,"instagram":"http:\/\/www.instagram.com\/tailchaserrescue","pinterest":null},"photos":[{"small":"https:\/\/dl5zpyw5k3jeb.cloudfront.net\/organization-photos\/27163\/1\/?bust=1505338059\u0026width=100","medium":"https:\/\/dl5zpyw5k3jeb.cloudfront.net\/organization-photos\/27163\/1\/?bust=1505338059\u0026width=300","large":"https:\/\/dl5zpyw5k3jeb.cloudfront.net\/organization-photos\/27163\/1\/?bust=1505338059\u0026width=600","full":"https:\/\/dl5zpyw5k3jeb.cloudfront.net\/organization-photos\/27163\/1\/?bust=1505338059"}],"distance":27.8053,"_links":{"self":{"href":"\/v2\/organizations\/ca1392"},"animals":{"href":"\/v2\/animals?organization=ca1392"}}},{"id":"CA2689","name":"MO4PAWS","email":"info@mo4paws.org","phone":"(310) 383-2983","address":{"address1":null,"address2":null,"city":"Palo Alto","state":"CA","postcode":"94306","country":"US"},"hours":{"monday":null,"tuesday":null,"wednesday":null,"thursday":null,"friday":null,"saturday":null,"sunday":null},"url":"https:\/\/www.petfinder.com\/member\/us\/ca\/palo-alto\/mo4paws-ca2689\/?referrer_id=d095eb0b-c914-4fd8-8ecc-8f9544a42a25","website":"https:\/\/www.mo4paws.org","mission_statement":"MO4PAWS is a 501(c)(3) nonprofit animal rescue organization dedicated to saving the lives of cat and dog companion animals from...","adoption":{"policy":null,"url":null},"social_media":{"facebook":"https:\/\/www.facebook.com\/MO4PAWS","twitter":null,"youtube":null,"instagram":"https:\/\/www.instagram.com\/mo4paws\/","pinterest":null},"photos":[{"small":"https:\/\/dl5zpyw5k3jeb.cloudfront.net\/organization-photos\/49167\/1\/?bust=1561537045\u0026width=100","medium":"https:\/\/dl5zpyw5k3jeb.cloudfront.net\/organization-photos\/49167\/1\/?bust=1561537045\u0026width=300","large":"https:\/\/dl5zpyw5k3jeb.cloudfront.net\/organization-photos\/49167\/1\/?bust=1561537045\u0026width=600","full":"https:\/\/dl5zpyw5k3jeb.cloudfront.net\/organization-photos\/49167\/1\/?bust=1561537045"}],"distance":4.8109,"_links":{"self":{"href":"\/v2\/organizations\/ca2689"},"animals":{"href":"\/v2\/animals?organization=ca2689"}}},{"id":"CA2340","name":"Guardian Angels International Rescue","email":"apply@adoptgair.org","phone":"  ","address":{"address1":null,"address2":null,"city":"Sunnyvale","state":"CA","postcode":"94089","country":"US"},"hours":{"monday":null,"tuesday":null,"wednesday":null,"thursday":null,"friday":null,"saturday":null,"sunday":null},"url":"https:\/\/www.petfinder.com\/member\/us\/ca\/sunnyvale\/guardian-angels-international-rescue-ca2340\/?referrer_id=d095eb0b-c914-4fd8-8ecc-8f9544a42a25","website":null,"mission_statement":null,"adoption":{"policy":null,"url":null},"social_media":{"facebook":null,"twitter":null,"youtube":null,"instagram":null,"pinterest":null},"photos":[{"small":"https:\/\/dl5zpyw5k3jeb.cloudfront.net\/organization-photos\/45604\/1\/?bust=1511941926\u0026width=100","medium":"https:\/\/dl5zpyw5k3jeb.cloudfront.net\/organization-photos\/45604\/1\/?bust=1511941926\u0026width=300","large":"https:\/\/dl5zpyw5k3jeb.cloudfront.net\/organization-photos\/45604\/1\/?bust=1511941926\u0026width=600","full":"https:\/\/dl5zpyw5k3jeb.cloudfront.net\/organization-photos\/45604\/1\/?bust=1511941926"}],"distance":7.7824,"_links":{"self":{"href":"\/v2\/organizations\/ca2340"},"animals":{"href":"\/v2\/animals?organization=ca2340"}}},{"id":"CA1052","name":"Group Education to Protect and Defend Animals","email":"mrotties4ever@aol.com","phone":"408-309-2667 ","address":{"address1":null,"address2":null,"city":"San Jose","state":"CA","postcode":"95124","country":"US"},"hours":{"monday":null,"tuesday":null,"wednesday":null,"thursday":null,"friday":null,"saturday":null,"sunday":null},"url":"https:\/\/www.petfinder.com\/member\/us\/ca\/san-jose\/group-education-to-protect-and-defend-animals-ca1052\/?referrer_id=d095eb0b-c914-4fd8-8ecc-8f9544a42a25","website":null,"mission_statement":null,"adoption":{"policy":null,"url":null},"social_media":{"facebook":null,"twitter":null,"youtube":null,"instagram":null,"pinterest":null},"photos":[{"small":"https:\/\/dl5zpyw5k3jeb.cloudfront.net\/organization-photos\/26901\/2\/?bust=1549576668\u0026width=100","medium":"https:\/\/dl5zpyw5k3jeb.cloudfront.net\/organization-photos\/26901\/2\/?bust=1549576668\u0026width=300","large":"https:\/\/dl5zpyw5k3jeb.cloudfront.net\/organization-photos\/26901\/2\/?bust=1549576668\u0026width=600","full":"https:\/\/dl5zpyw5k3jeb.cloudfront.net\/organization-photos\/26901\/2\/?bust=1549576668"},{"small":"https:\/\/dl5zpyw5k3jeb.cloudfront.net\/organization-photos\/26901\/1\/?bust=1549576668\u0026width=100","medium":"https:\/\/dl5zpyw5k3jeb.cloudfront.net\/organization-photos\/26901\/1\/?bust=1549576668\u0026width=300","large":"https:\/\/dl5zpyw5k3jeb.cloudfront.net\/organization-photos\/26901\/1\/?bust=1549576668\u0026width=600","full":"https:\/\/dl5zpyw5k3jeb.cloudfront.net\/organization-photos\/26901\/1\/?bust=1549576668"},{"small":"https:\/\/dl5zpyw5k3jeb.cloudfront.net\/organization-photos\/26901\/3\/?bust=1549576669\u0026width=100","medium":"https:\/\/dl5zpyw5k3jeb.cloudfront.net\/organization-photos\/26901\/3\/?bust=1549576669\u0026width=300","large":"https:\/\/dl5zpyw5k3jeb.cloudfront.net\/organization-photos\/26901\/3\/?bust=1549576669\u0026width=600","full":"https:\/\/dl5zpyw5k3jeb.cloudfront.net\/organization-photos\/26901\/3\/?bust=1549576669"},{"small":"https:\/\/dl5zpyw5k3jeb.cloudfront.net\/organization-photos\/26901\/4\/?bust=1549576669\u0026width=100","medium":"https:\/\/dl5zpyw5k3jeb.cloudfront.net\/organization-photos\/26901\/4\/?bust=1549576669\u0026width=300","large":"https:\/\/dl5zpyw5k3jeb.cloudfront.net\/organization-photos\/26901\/4\/?bust=1549576669\u0026width=600","full":"https:\/\/dl5zpyw5k3jeb.cloudfront.net\/organization-photos\/26901\/4\/?bust=1549576669"},{"small":"https:\/\/dl5zpyw5k3jeb.cloudfront.net\/organization-photos\/26901\/5\/?bust=1549576669\u0026width=100","medium":"https:\/\/dl5zpyw5k3jeb.cloudfront.net\/organization-photos\/26901\/5\/?bust=1549576669\u0026width=300","large":"https:\/\/dl5zpyw5k3jeb.cloudfront.net\/organization-photos\/26901\/5\/?bust=1549576669\u0026width=600","full":"https:\/\/dl5zpyw5k3jeb.cloudfront.net\/organization-photos\/26901\/5\/?bust=1549576669"},{"small":"https:\/\/dl5zpyw5k3jeb.cloudfront.net\/organization-photos\/26901\/6\/?bust=1549576670\u0026width=100","medium":"https:\/\/dl5zpyw5k3jeb.cloudfront.net\/organization-photos\/26901\/6\/?bust=1549576670\u0026width=300","large":"https:\/\/dl5zpyw5k3jeb.cloudfront.net\/organization-photos\/26901\/6\/?bust=1549576670\u0026width=600","full":"https:\/\/dl5zpyw5k3jeb.cloudfront.net\/organization-photos\/26901\/6\/?bust=1549576670"}],"distance":20.5463,"_links":{"self":{"href":"\/v2\/organizations\/ca1052"},"animals":{"href":"\/v2\/animals?organization=ca1052"}}},{"id":"CA2677","name":"Redwood Coast German Shepherd Rescue, Inc.","email":"info@rwcgsr.org","phone":"(831) 205-4321","address":{"address1":null,"address2":null,"city":"Ben Lomond","state":"CA","postcode":"95005","country":"US"},"hours":{"monday":null,"tuesday":null,"wednesday":null,"thursday":null,"friday":null,"saturday":null,"sunday":null},"url":"https:\/\/www.petfinder.com\/member\/us\/ca\/ben-lomond\/redwood-coast-german-shepherd-rescue-inc-ca2677\/?referrer_id=d095eb0b-c914-4fd8-8ecc-8f9544a42a25","website":"https:\/\/www.rwcgsr.org","mission_statement":"Redwood Coast German Shepherd Rescue, Inc. is dedicated to the rescue and placement of sound German Shepherd dogs (and mixes)...","adoption":{"policy":"1. Submit Application \r\n2. Interview \r\n3. Home Check \r\n4. Approve Application \r\n5. Meet the Pet \r\n6. Sign Adoption Contract \r\n7....","url":"https:\/\/petstablished.com\/adoption_form\/17371\/generic"},"social_media":{"facebook":null,"twitter":null,"youtube":null,"instagram":null,"pinterest":null},"photos":[{"small":"https:\/\/dl5zpyw5k3jeb.cloudfront.net\/organization-photos\/49065\/1\/?bust=1560099189\u0026width=100","medium":"https:\/\/dl5zpyw5k3jeb.cloudfront.net\/organization-photos\/49065\/1\/?bust=1560099189\u0026width=300","large":"https:\/\/dl5zpyw5k3jeb.cloudfront.net\/organization-photos\/49065\/1\/?bust=1560099189\u0026width=600","full":"https:\/\/dl5zpyw5k3jeb.cloudfront.net\/organization-photos\/49065\/1\/?bust=1560099189"}],"distance":33.5278,"_links":{"self":{"href":"\/v2\/organizations\/ca2677"},"animals":{"href":"\/v2\/animals?organization=ca2677"}}},{"id":"CA444","name":"Bay Area Siberian Husky Rescue\/Referral","email":"bashrr@com-ctl.com","phone":"(800) 473-2274","address":{"address1":null,"address2":null,"city":"Campbell","state":"CA","postcode":"95008","country":"US"},"hours":{"monday":null,"tuesday":null,"wednesday":null,"thursday":null,"friday":null,"saturday":null,"sunday":null},"url":"https:\/\/www.petfinder.com\/member\/us\/ca\/campbell\/bay-area-siberian-husky-rescue-referral-ca444\/?referrer_id=d095eb0b-c914-4fd8-8ecc-8f9544a42a25","website":null,"mission_statement":null,"adoption":{"policy":null,"url":null},"social_media":{"facebook":null,"twitter":null,"youtube":null,"instagram":null,"pinterest":null},"photos":[],"distance":16.5181,"_links":{"self":{"href":"\/v2\/organizations\/ca444"},"animals":{"href":"\/v2\/animals?organization=ca444"}}},{"id":"CA1687","name":"The Perfect Dog","email":"theperfectdogrescue@gmail.com","phone":"510-333-4420 ","address":{"address1":"PO Box 361441","address2":"MILPITAS 95036, not fremont","city":"Fremont","state":"CA","postcode":"94538","country":"US"},"hours":{"monday":null,"tuesday":null,"wednesday":null,"thursday":null,"friday":null,"saturday":null,"sunday":null},"url":"https:\/\/www.petfinder.com\/member\/us\/ca\/fremont\/the-perfect-dog-ca1687\/?referrer_id=d095eb0b-c914-4fd8-8ecc-8f9544a42a25","website":null,"mission_statement":null,"adoption":{"policy":null,"url":null},"social_media":{"facebook":null,"twitter":null,"youtube":null,"instagram":null,"pinterest":null},"photos":[],"distance":18.9269,"_links":{"self":{"href":"\/v2\/organizations\/ca1687"},"animals":{"href":"\/v2\/animals?organization=ca1687"}}},{"id":"CA2822","name":"Gatos de la Noches, Inc.","email":"onamission2012@yahoo.com","phone":null,"address":{"address1":null,"address2":null,"city":"San Jose","state":"CA","postcode":"95128","country":"US"},"hours":{"monday":null,"tuesday":null,"wednesday":null,"thursday":null,"friday":null,"saturday":null,"sunday":null},"url":"https:\/\/www.petfinder.com\/member\/us\/ca\/san-jose\/gatos-de-la-noches-inc-ca2822\/?referrer_id=d095eb0b-c914-4fd8-8ecc-8f9544a42a25","website":"https:\/\/gatosdelanoche.com","mission_statement":"Our mission is to actively facilitate and support the humane treatment of feral cat colonies.  \r\n This includes participating in Trap...","adoption":{"policy":null,"url":null},"social_media":{"facebook":"https:\/\/www.facebook.com\/gatosdelanoche1\/","twitter":null,"youtube":null,"instagram":"https:\/\/www.instagram.com\/gatosdelanoche\/","pinterest":null},"photos":[],"distance":15.7058,"_links":{"self":{"href":"\/v2\/organizations\/ca2822"},"animals":{"href":"\/v2\/animals?organization=ca2822"}}}],"pagination":{"count_per_page":20,"total_count":79,"current_page":1,"total_pages":4,"_links":{"next":{"href":"\/v2\/organizations?location=94040\u0026page=2"}}}}